tb_spi_slave_synth.vcd
$date
	Sun Jun  7 12:50:55 2026
$end
$version
	Icarus Verilog
$end
$timescale
	1ns
$end
$scope module tb_spi_slave $end
$var wire 1 ! miso $end
$var wire 8 " debug [7:0] $end
$var wire 8 # data [7:0] $end
$var reg 8 $ addr [7:0] $end
$var reg 1 % clk $end
$var reg 1 & mosi $end
$var reg 1 ' rst_n $end
$var reg 1 ( sck $end
$var reg 1 ) ssel $end
$scope module spi_slave1 $end
$var wire 8 * Add2_in [7:0] $end
$var wire 1 % Clk $end
$var wire 1 & MOSI $end
$var wire 1 ( SCK $end
$var wire 1 ) SSEL $end
$var wire 1 + _0007_ $end
$var wire 1 , _0008_ $end
$var wire 1 - _0009_ $end
$var wire 1 . _0010_ $end
$var wire 1 / _0011_ $end
$var wire 1 0 _0012_ $end
$var wire 1 1 _0013_ $end
$var wire 1 2 _0014_ $end
$var wire 1 3 _0015_ $end
$var wire 1 4 _0016_ $end
$var wire 1 5 _0017_ $end
$var wire 1 6 _0018_ $end
$var wire 1 7 _0019_ $end
$var wire 1 8 _0020_ $end
$var wire 1 9 _0021_ $end
$var wire 1 : _0022_ $end
$var wire 1 ; _0023_ $end
$var wire 1 < _0024_ $end
$var wire 1 = _0025_ $end
$var wire 1 > _0026_ $end
$var wire 1 ? _0027_ $end
$var wire 1 @ _0028_ $end
$var wire 1 A _0029_ $end
$var wire 1 B _0030_ $end
$var wire 1 C _0031_ $end
$var wire 1 D _0032_ $end
$var wire 1 E _0033_ $end
$var wire 1 F _0034_ $end
$var wire 1 G _0035_ $end
$var wire 1 H _0036_ $end
$var wire 1 I _0037_ $end
$var wire 1 J _0038_ $end
$var wire 1 K _0039_ $end
$var wire 1 L _0040_ $end
$var wire 1 M _0041_ $end
$var wire 1 N _0042_ $end
$var wire 1 O _0043_ $end
$var wire 1 P _0044_ $end
$var wire 1 Q _0045_ $end
$var wire 1 R _0046_ $end
$var wire 1 S _0047_ $end
$var wire 1 T _0048_ $end
$var wire 1 U _0049_ $end
$var wire 1 V _0050_ $end
$var wire 1 W _0051_ $end
$var wire 1 X _0052_ $end
$var wire 1 Y _0053_ $end
$var wire 1 Z _0054_ $end
$var wire 1 [ _0055_ $end
$var wire 1 \ _0056_ $end
$var wire 1 ] _0057_ $end
$var wire 1 ^ _0058_ $end
$var wire 1 _ _0059_ $end
$var wire 1 ` _0082_ $end
$var wire 1 a _0083_ $end
$var wire 1 b _0084_ $end
$var wire 1 c _0085_ $end
$var wire 1 d _0087_ $end
$var wire 1 e _0088_ $end
$var wire 1 f _0090_ $end
$var wire 1 g _0093_ $end
$var wire 1 h _0095_ $end
$var wire 1 i _0097_ $end
$var wire 1 j _0099_ $end
$var wire 1 k _0101_ $end
$var wire 1 l _0105_ $end
$var wire 1 m _0108_ $end
$var wire 1 n _0111_ $end
$var wire 1 o _0114_ $end
$var wire 1 p _0117_ $end
$var wire 1 q _0120_ $end
$var wire 1 r _0123_ $end
$var wire 1 s _0125_ $end
$var wire 1 t _0127_ $end
$var wire 1 u _0129_ $end
$var wire 1 v _0131_ $end
$var wire 1 w _0133_ $end
$var wire 1 x _0136_ $end
$var wire 1 y _0139_ $end
$var wire 1 z _0142_ $end
$var wire 1 { _0145_ $end
$var wire 1 | _0148_ $end
$var wire 1 } _0151_ $end
$var wire 1 ~ _0154_ $end
$var wire 1 !" _0157_ $end
$var wire 1 "" _0160_ $end
$var wire 1 #" _0161_ $end
$var wire 1 $" _0163_ $end
$var wire 1 %" _0165_ $end
$var wire 1 &" _0167_ $end
$var wire 1 '" _0169_ $end
$var wire 1 (" _0171_ $end
$var wire 1 )" _0173_ $end
$var wire 1 *" _0174_ $end
$var wire 1 +" _0176_ $end
$var wire 1 ," _0179_ $end
$var wire 1 -" _0182_ $end
$var wire 1 ." _0187_ $end
$var wire 1 /" _0188_ $end
$var wire 1 0" _0189_ $end
$var wire 1 1" _0190_ $end
$var wire 1 2" _0191_ $end
$var wire 1 3" _0192_ $end
$var wire 1 4" _0193_ $end
$var wire 1 5" _0194_ $end
$var wire 1 6" _0195_ $end
$var wire 1 7" _0196_ $end
$var wire 1 8" _0197_ $end
$var wire 1 9" _0198_ $end
$var wire 1 :" _0199_ $end
$var wire 1 ;" _0200_ $end
$var wire 1 <" _0201_ $end
$var wire 1 =" _0202_ $end
$var wire 1 >" _0203_ $end
$var wire 1 ?" _0204_ $end
$var wire 1 @" _0205_ $end
$var wire 1 A" _0206_ $end
$var wire 1 B" _0207_ $end
$var wire 1 C" _0208_ $end
$var wire 1 D" _0209_ $end
$var wire 1 E" _0210_ $end
$var wire 1 F" _0211_ $end
$var wire 1 G" _0212_ $end
$var wire 1 H" _0213_ $end
$var wire 1 I" _0214_ $end
$var wire 1 J" _0215_ $end
$var wire 1 K" _0216_ $end
$var wire 1 L" _0217_ $end
$var wire 1 M" _0218_ $end
$var wire 1 N" _0219_ $end
$var wire 1 O" _0220_ $end
$var wire 1 P" _0221_ $end
$var wire 1 Q" _0222_ $end
$var wire 1 R" _0223_ $end
$var wire 1 S" _0224_ $end
$var wire 1 T" _0225_ $end
$var wire 1 U" _0226_ $end
$var wire 1 V" _0227_ $end
$var wire 1 W" _0228_ $end
$var wire 1 X" _0229_ $end
$var wire 1 Y" _0230_ $end
$var wire 1 Z" _0231_ $end
$var wire 1 [" _0232_ $end
$var wire 1 \" _0233_ $end
$var wire 1 ]" _0234_ $end
$var wire 1 ^" _0235_ $end
$var wire 1 _" _0236_ $end
$var wire 1 `" _0237_ $end
$var wire 1 a" _0238_ $end
$var wire 1 b" _0239_ $end
$var wire 1 c" _0240_ $end
$var wire 1 d" _0241_ $end
$var wire 1 e" _0242_ $end
$var wire 1 f" _0243_ $end
$var wire 1 g" _0244_ $end
$var wire 1 h" _0245_ $end
$var wire 1 i" _0246_ $end
$var wire 1 j" _0247_ $end
$var wire 1 k" _0248_ $end
$var wire 1 l" _0249_ $end
$var wire 1 m" _0250_ $end
$var wire 1 n" _0251_ $end
$var wire 1 o" _0252_ $end
$var wire 1 p" _0253_ $end
$var wire 1 q" _0254_ $end
$var wire 1 r" _0255_ $end
$var wire 1 s" _0256_ $end
$var wire 1 t" _0257_ $end
$var wire 1 u" _0258_ $end
$var wire 1 v" _0259_ $end
$var wire 1 w" _0260_ $end
$var wire 1 x" _0261_ $end
$var wire 1 y" _0262_ $end
$var wire 1 z" _0263_ $end
$var wire 1 {" _0264_ $end
$var wire 1 |" _0265_ $end
$var wire 1 }" _0266_ $end
$var wire 1 ~" _0267_ $end
$var wire 1 !# _0268_ $end
$var wire 1 "# _0269_ $end
$var wire 1 ## _0270_ $end
$var wire 1 $# _0271_ $end
$var wire 1 %# _0272_ $end
$var wire 1 &# _0273_ $end
$var wire 1 '# _0274_ $end
$var wire 1 (# _0275_ $end
$var wire 1 )# _0276_ $end
$var wire 1 *# _0277_ $end
$var wire 1 +# _0278_ $end
$var wire 1 ,# _0279_ $end
$var wire 1 -# _0280_ $end
$var wire 1 .# _0281_ $end
$var wire 1 /# _0282_ $end
$var wire 1 0# _0283_ $end
$var wire 1 1# _0284_ $end
$var wire 1 2# _0285_ $end
$var wire 1 3# _0286_ $end
$var wire 1 4# _0287_ $end
$var wire 1 5# _0288_ $end
$var wire 1 6# _0289_ $end
$var wire 1 7# _0290_ $end
$var wire 1 8# _0291_ $end
$var wire 1 9# _0292_ $end
$var wire 1 :# _0293_ $end
$var wire 1 ;# _0294_ $end
$var wire 1 <# _0295_ $end
$var wire 1 =# _0296_ $end
$var wire 1 ># _0297_ $end
$var wire 1 ?# _0298_ $end
$var wire 1 @# _0299_ $end
$var wire 1 A# _0300_ $end
$var wire 1 B# _0301_ $end
$var wire 1 C# _0302_ $end
$var wire 1 D# _0303_ $end
$var wire 1 E# _0304_ $end
$var wire 1 F# _0305_ $end
$var wire 1 G# _0306_ $end
$var wire 1 H# _0307_ $end
$var wire 1 I# _0308_ $end
$var wire 1 J# _0309_ $end
$var wire 1 K# _0310_ $end
$var wire 1 L# _0311_ $end
$var wire 1 M# _0312_ $end
$var wire 1 N# _0313_ $end
$var wire 1 O# _0314_ $end
$var wire 1 P# _0315_ $end
$var wire 1 Q# _0316_ $end
$var wire 1 R# _0317_ $end
$var wire 1 S# _0318_ $end
$var wire 1 T# _0319_ $end
$var wire 1 U# _0320_ $end
$var wire 1 V# _0321_ $end
$var wire 1 W# _0322_ $end
$var wire 1 X# _0323_ $end
$var wire 1 Y# _0324_ $end
$var wire 1 Z# _0325_ $end
$var wire 1 [# _0326_ $end
$var wire 1 \# _0327_ $end
$var wire 1 ]# _0328_ $end
$var wire 1 ^# _0329_ $end
$var wire 1 _# _0330_ $end
$var wire 1 `# _0331_ $end
$var wire 1 a# _0332_ $end
$var wire 1 b# _0333_ $end
$var wire 1 c# _0334_ $end
$var wire 1 d# _0335_ $end
$var wire 1 e# _0336_ $end
$var wire 1 f# _0337_ $end
$var wire 1 g# _0338_ $end
$var wire 1 h# _0339_ $end
$var wire 1 i# _0340_ $end
$var wire 1 j# _0341_ $end
$var wire 1 k# _0342_ $end
$var wire 1 l# _0343_ $end
$var wire 1 m# _0344_ $end
$var wire 1 n# _0345_ $end
$var wire 1 o# _0346_ $end
$var wire 1 p# _0347_ $end
$var wire 1 q# _0348_ $end
$var wire 1 r# _0356_ $end
$var wire 1 s# _0357_ $end
$var wire 1 t# _0358_ $end
$var wire 1 u# _0359_ $end
$var wire 1 v# _0360_ $end
$var wire 1 w# _0361_ $end
$var wire 1 x# _0362_ $end
$var wire 1 y# _0363_ $end
$var wire 1 z# _0367_ $end
$var wire 1 {# _0368_ $end
$var wire 1 |# _0369_ $end
$var wire 1 }# _0370_ $end
$var wire 1 ~# _0371_ $end
$var wire 1 !$ _0372_ $end
$var wire 1 "$ _0373_ $end
$var wire 1 #$ _0374_ $end
$var wire 1 ' iRST_N $end
$var wire 8 $$ debug [7:0] $end
$var wire 32 %$ _0384_ [31:0] $end
$var wire 32 &$ _0383_ [31:0] $end
$var wire 32 '$ _0382_ [31:0] $end
$var wire 8 ($ _0381_ [7:0] $end
$var wire 8 )$ _0380_ [7:0] $end
$var wire 8 *$ _0379_ [7:0] $end
$var wire 8 +$ _0378_ [7:0] $end
$var wire 3 ,$ _0377_ [2:0] $end
$var wire 3 -$ _0376_ [2:0] $end
$var wire 3 .$ _0375_ [2:0] $end
$var wire 1 /$ _0366_ $end
$var wire 1 0$ _0365_ $end
$var wire 1 1$ _0364_ $end
$var wire 4 2$ _0355_ [3:0] $end
$var wire 4 3$ _0354_ [3:0] $end
$var wire 4 4$ _0353_ [3:0] $end
$var wire 4 5$ _0352_ [3:0] $end
$var wire 4 6$ _0351_ [3:0] $end
$var wire 8 7$ _0350_ [7:0] $end
$var wire 8 8$ _0349_ [7:0] $end
$var wire 2 9$ _0186_ [1:0] $end
$var wire 2 :$ _0185_ [1:0] $end
$var wire 2 ;$ _0184_ [1:0] $end
$var wire 4 <$ _0183_ [3:0] $end
$var wire 2 =$ _0181_ [1:0] $end
$var wire 4 >$ _0180_ [3:0] $end
$var wire 2 ?$ _0178_ [1:0] $end
$var wire 4 @$ _0177_ [3:0] $end
$var wire 2 A$ _0175_ [1:0] $end
$var wire 2 B$ _0172_ [1:0] $end
$var wire 2 C$ _0170_ [1:0] $end
$var wire 2 D$ _0168_ [1:0] $end
$var wire 2 E$ _0166_ [1:0] $end
$var wire 2 F$ _0164_ [1:0] $end
$var wire 2 G$ _0162_ [1:0] $end
$var wire 2 H$ _0159_ [1:0] $end
$var wire 4 I$ _0158_ [3:0] $end
$var wire 2 J$ _0156_ [1:0] $end
$var wire 4 K$ _0155_ [3:0] $end
$var wire 2 L$ _0153_ [1:0] $end
$var wire 4 M$ _0152_ [3:0] $end
$var wire 2 N$ _0150_ [1:0] $end
$var wire 4 O$ _0149_ [3:0] $end
$var wire 2 P$ _0147_ [1:0] $end
$var wire 4 Q$ _0146_ [3:0] $end
$var wire 2 R$ _0144_ [1:0] $end
$var wire 4 S$ _0143_ [3:0] $end
$var wire 2 T$ _0141_ [1:0] $end
$var wire 4 U$ _0140_ [3:0] $end
$var wire 2 V$ _0138_ [1:0] $end
$var wire 4 W$ _0137_ [3:0] $end
$var wire 2 X$ _0135_ [1:0] $end
$var wire 4 Y$ _0134_ [3:0] $end
$var wire 2 Z$ _0132_ [1:0] $end
$var wire 2 [$ _0130_ [1:0] $end
$var wire 2 \$ _0128_ [1:0] $end
$var wire 2 ]$ _0126_ [1:0] $end
$var wire 2 ^$ _0124_ [1:0] $end
$var wire 2 _$ _0122_ [1:0] $end
$var wire 4 `$ _0121_ [3:0] $end
$var wire 2 a$ _0119_ [1:0] $end
$var wire 4 b$ _0118_ [3:0] $end
$var wire 2 c$ _0116_ [1:0] $end
$var wire 4 d$ _0115_ [3:0] $end
$var wire 2 e$ _0113_ [1:0] $end
$var wire 4 f$ _0112_ [3:0] $end
$var wire 2 g$ _0110_ [1:0] $end
$var wire 4 h$ _0109_ [3:0] $end
$var wire 2 i$ _0107_ [1:0] $end
$var wire 4 j$ _0106_ [3:0] $end
$var wire 2 k$ _0104_ [1:0] $end
$var wire 2 l$ _0103_ [1:0] $end
$var wire 2 m$ _0102_ [1:0] $end
$var wire 2 n$ _0100_ [1:0] $end
$var wire 2 o$ _0098_ [1:0] $end
$var wire 2 p$ _0096_ [1:0] $end
$var wire 2 q$ _0094_ [1:0] $end
$var wire 2 r$ _0092_ [1:0] $end
$var wire 2 s$ _0091_ [1:0] $end
$var wire 2 t$ _0089_ [1:0] $end
$var wire 2 u$ _0086_ [1:0] $end
$var wire 2 v$ _0081_ [1:0] $end
$var wire 2 w$ _0080_ [1:0] $end
$var wire 2 x$ _0079_ [1:0] $end
$var wire 3 y$ _0078_ [2:0] $end
$var wire 2 z$ _0077_ [1:0] $end
$var wire 3 {$ _0076_ [2:0] $end
$var wire 2 |$ _0075_ [1:0] $end
$var wire 3 }$ _0074_ [2:0] $end
$var wire 2 ~$ _0073_ [1:0] $end
$var wire 3 !% _0072_ [2:0] $end
$var wire 2 "% _0071_ [1:0] $end
$var wire 3 #% _0070_ [2:0] $end
$var wire 2 $% _0069_ [1:0] $end
$var wire 2 %% _0068_ [1:0] $end
$var wire 2 &% _0067_ [1:0] $end
$var wire 4 '% _0066_ [3:0] $end
$var wire 2 (% _0065_ [1:0] $end
$var wire 4 )% _0064_ [3:0] $end
$var wire 2 *% _0063_ [1:0] $end
$var wire 4 +% _0062_ [3:0] $end
$var wire 2 ,% _0061_ [1:0] $end
$var wire 4 -% _0060_ [3:0] $end
$var wire 8 .% _0006_ [7:0] $end
$var wire 1 /% _0005_ $end
$var wire 3 0% _0004_ [2:0] $end
$var wire 8 1% _0003_ [7:0] $end
$var wire 8 2% _0002_ [7:0] $end
$var wire 8 3% _0001_ [7:0] $end
$var wire 4 4% _0000_ [3:0] $end
$var wire 8 5% Add_SPI [7:0] $end
$var reg 1 6% \Add_SPI_reg[0] $end
$var reg 1 7% \Add_SPI_reg[1] $end
$var reg 1 8% \Add_SPI_reg[2] $end
$var reg 1 9% \Add_SPI_reg[3] $end
$var reg 1 :% \Add_SPI_reg[4] $end
$var reg 1 ;% \Add_SPI_reg[5] $end
$var reg 1 <% \Add_SPI_reg[6] $end
$var reg 4 =% BitCnt [3:0] $end
$var reg 8 >% Data2_out [7:0] $end
$var reg 8 ?% DataToSend [7:0] $end
$var reg 8 @% Data_fromSPI [7:0] $end
$var reg 8 A% Data_toSPI [7:0] $end
$var reg 1 ! MISO $end
$var reg 1 B% MOSI_delay0 $end
$var reg 1 C% MOSI_metastable $end
$var reg 8 D% ReceivedByte [7:0] $end
$var reg 8 E% Register0 [7:0] $end
$var reg 8 F% Register1 [7:0] $end
$var reg 8 G% Register2 [7:0] $end
$var reg 8 H% Register3 [7:0] $end
$var reg 8 I% Register4 [7:0] $end
$var reg 8 J% Register5 [7:0] $end
$var reg 8 K% Register6 [7:0] $end
$var reg 8 L% Register7 [7:0] $end
$var reg 1 M% RnW $end
$var reg 1 N% SCK_delay0 $end
$var reg 1 O% SCK_delay1 $end
$var reg 1 P% SCK_metastable $end
$var reg 3 Q% SPI_State [2:0] $end
$var reg 1 R% SSEL_delay0 $end
$var reg 1 S% SSEL_delay1 $end
$var reg 1 T% SSEL_metastable $end
$var reg 1 U% WrEn $end
$var reg 1 V% \debug_reg[0] $end
$var reg 1 W% \debug_reg[1] $end
$var reg 1 X% \debug_reg[2] $end
$var reg 1 Y% \debug_reg[3] $end
$var reg 1 Z% \debug_reg[4] $end
$upscope $end
$upscope $end
$enddefinitions $end
$comment Show the parameter values. $end
$dumpall
$end
#0
$dumpvars
0Z%
0Y%
0X%
0W%
0V%
0U%
0T%
0S%
0R%
b0 Q%
0P%
0O%
0N%
0M%
b110000 L%
b100000 K%
b10000 J%
b1110 I%
b1101 H%
b1100 G%
b1011 F%
b1010 E%
b0 D%
0C%
0B%
b0 A%
b0 @%
b0 ?%
b0 >%
b0 =%
0<%
0;%
0:%
09%
08%
07%
06%
b0 5%
b0 4%
b1101 3%
bx 2%
bx 1%
bx 0%
0/%
bz00001 .%
b11 -%
b1 ,%
b11 +%
b1 *%
b11 )%
b1 (%
b0 '%
b0 &%
b1 %%
b1 $%
b11 #%
b1 "%
b11 !%
b1 ~$
b11 }$
b1 |$
b10 {$
b1 z$
b1 y$
b1 x$
b1 w$
b1 v$
b1 u$
b10 t$
b10 s$
b0 r$
b11 q$
b0 p$
b0 o$
b10 n$
b10 m$
b1 l$
b0 k$
b100 j$
b10 i$
b100 h$
b10 g$
b0 f$
b0 e$
b0 d$
b0 c$
b0 b$
b0 a$
b0 `$
b0 _$
b1 ^$
b1 ]$
b0x \$
b0x [$
b0x Z$
b1000 Y$
b10 X$
b0 W$
b0 V$
b1000 U$
b10 T$
b0 S$
b0 R$
b1000 Q$
b10 P$
b0 O$
b0 N$
b0 M$
b0 L$
b0 K$
b0 J$
b0 I$
b0 H$
b0 G$
b0 F$
b0 E$
b0 D$
b0 C$
b0 B$
b0 A$
b100 @$
b10 ?$
b100 >$
b10 =$
b0 <$
b1 ;$
b1 :$
b0 9$
bx 8$
bx 7$
bx 6$
bx 5$
bx 4$
b0 3$
b0 2$
x1$
x0$
x/$
bx .$
bx -$
bx ,$
b1010 +$
bx *$
bx )$
bx ($
b0z000 '$
b1 &$
b0z0001 %$
b0 $$
0#$
0"$
0!$
1~#
0}#
0|#
0{#
0z#
1y#
0x#
0w#
0v#
0u#
0t#
0s#
0r#
1q#
1p#
1o#
0n#
0m#
0l#
0k#
0j#
0i#
0h#
0g#
0f#
0e#
0d#
1c#
0b#
0a#
0`#
0_#
0^#
0]#
0\#
0[#
0Z#
0Y#
0X#
0W#
0V#
0U#
0T#
0S#
0R#
0Q#
0P#
0O#
0N#
0M#
0L#
0K#
0J#
0I#
0H#
0G#
0F#
0E#
0D#
0C#
0B#
0A#
0@#
0?#
0>#
0=#
0<#
0;#
0:#
09#
08#
07#
16#
05#
04#
03#
02#
01#
00#
0/#
0.#
0-#
0,#
0+#
0*#
0)#
0(#
0'#
1&#
0%#
0$#
0##
0"#
0!#
0~"
0}"
0|"
0{"
0z"
0y"
0x"
0w"
0v"
0u"
0t"
0s"
0r"
xq"
0p"
0o"
0n"
xm"
0l"
0k"
0j"
0i"
0h"
0g"
0f"
0e"
0d"
0c"
0b"
0a"
0`"
0_"
0^"
0]"
0\"
0["
0Z"
0Y"
0X"
0W"
0V"
0U"
0T"
0S"
0R"
0Q"
0P"
0O"
0N"
0M"
0L"
0K"
0J"
1I"
0H"
0G"
0F"
0E"
0D"
0C"
0B"
1A"
0@"
0?"
0>"
0="
1<"
1;"
1:"
19"
18"
17"
16"
15"
14"
13"
12"
01"
10"
1/"
1."
1-"
1,"
0+"
1*"
0)"
0("
0'"
0&"
0%"
0$"
1#"
0""
0!"
0~
0}
1|
0{
1z
0y
1x
xw
xv
xu
1t
1s
0r
0q
0p
0o
1n
1m
0l
0k
0j
0i
1h
0g
1f
0e
0d
1c
1b
1a
0`
1_
1^
1]
0\
0[
1Z
1Y
1X
1W
1V
1U
1T
1S
0R
0Q
0P
0O
0N
0M
0L
0K
0J
1I
0H
1G
0F
0E
0D
0C
0B
0A
0@
1?
1>
1=
1<
0;
1:
19
18
07
16
05
04
13
12
01
10
1/
0.
0-
0,
0+
b11 *
1)
0(
0'
0&
0%
b11 $
b0 #
b0 "
0!
$end
#1
1%
#2
0%
#3
1%
#4
0%
#5
1%
#6
0%
#7
1%
#8
0%
#9
1%
#10
0%
1'
#11
b1 "
b1 $$
b1101 #
b1101 >%
1T%
1V%
1%
#12
0%
#13
b0 .$
0o#
1R%
1%
#14
0%
#15
1S%
1%
#16
0%
#17
1%
#18
0%
#19
1%
#20
0%
0)
#21
0T%
1%
#22
0%
#23
b1 0%
0w
0v
1u
b0 Z$
b0 [$
b1 \$
1R
1d
0q"
1m"
b11 u$
b1 ,$
1;
b1 9$
bx .$
1o#
0R%
1%
#24
0%
#25
0R
xv
xw
1F
b0 4%
bx 0%
0d
1i
xu
1=
0G
b0x [$
b0x Z$
0?
b0 :$
1#"
b1 ]$
1t
1f
0h
b1 u$
1)"
b10 B$
0Q
0_
b0x \$
bz00010 .%
0k
b10 o$
b1 n$
xn"
xr"
xs"
1-
b10 t$
b0 q$
b1 s$
0<
15
0m"
1*"
b11 p$
b0 r$
bx ,$
00
06
0b
11
0U
1`
b10 9$
b1 Q%
0S%
1%
#26
0%
#27
b11 "
b11 $$
1W%
1%
#28
0%
#29
1%
#30
0%
1&
1(
#31
1P%
1C%
1%
#32
0%
#33
b1 4%
1$"
b10 G$
b1 1%
b1 2$
b1 7$
b1 3$
1Q
1?
b10 :$
0q#
1B%
1N%
1%
#34
0%
#35
bx 1%
0Q
0?
1+"
b1 A$
b0z001 '$
bx 7$
b0z0010 %$
b0 :$
b0 &$
b11 m$
0p#
1O%
b1 D%
b1 =%
1%
#36
0%
#37
1%
#38
0%
#39
1%
#40
0%
0(
#41
0P%
1%
#42
0%
#43
b10 4$
b0 ($
b0 *$
b0 )$
b10 6$
b1 5$
0/$
01$
00$
1+
1q#
0N%
1%
#44
0%
#45
bx 4$
bx ($
bx *$
bx )$
bx 6$
bx 5$
x/$
x1$
x0$
1p#
0+
0O%
1%
#46
0%
#47
1%
#48
0%
#49
1%
#50
0%
0&
1(
#51
1P%
0C%
1%
#52
0%
#53
b10 4%
0$"
1%"
b0 G$
b10 F$
b10 1%
b10 2$
b10 7$
b10 3$
1Q
1?
b10 :$
0q#
0B%
1N%
1%
#54
0%
#55
bx 1%
b0z0011 %$
0Q
0?
b0z000 '$
bx 7$
b0 :$
b11 &$
0p#
1O%
b10 D%
b10 =%
1%
#56
0%
#57
1%
#58
0%
#59
1%
#60
0%
0(
#61
0P%
1%
#62
0%
#63
b11 4$
b0 ($
b0 *$
b0 )$
b11 6$
b1 5$
0/$
01$
00$
1+
1q#
0N%
1%
#64
0%
#65
bx 4$
bx ($
bx *$
bx )$
bx 6$
bx 5$
x/$
x1$
x0$
1p#
0+
0O%
1%
#66
0%
#67
1%
#68
0%
#69
1%
#70
0%
1(
#71
1P%
1%
#72
0%
#73
b11 4%
1$"
b10 G$
b100 1%
b11 2$
b100 7$
b11 3$
1Q
1?
b10 :$
0q#
1N%
1%
#74
0%
#75
bx 1%
0Q
0?
bx 7$
b0z0100 %$
b0z011 '$
b0 :$
b10 &$
0p#
1O%
b100 D%
b11 =%
1%
#76
0%
#77
1%
#78
0%
#79
1%
#80
0%
0(
#81
0P%
1%
#82
0%
#83
b100 4$
b0 ($
b0 *$
b0 )$
b100 6$
b1 5$
0/$
01$
00$
1+
1q#
0N%
1%
#84
0%
#85
bx 4$
bx ($
bx *$
bx )$
bx 6$
bx 5$
x/$
x1$
x0$
1p#
0+
0O%
1%
#86
0%
#87
1%
#88
0%
#89
1%
#90
0%
1(
#91
1P%
1%
#92
0%
#93
b100 4%
0$"
0%"
1&"
b0 G$
b0 F$
b10 E$
b1000 1%
b100 2$
b1000 7$
b100 3$
1Q
1?
b10 :$
0q#
1N%
1%
#94
0%
#95
bx 1%
0Q
0?
bx 7$
b0z0101 %$
b0z000 '$
b0 :$
b10 m$
b10 A$
b101 &$
0p#
1O%
b1000 D%
b100 =%
1%
#96
0%
#97
1%
#98
0%
#99
1%
#100
0%
0(
#101
0P%
1%
#102
0%
#103
b101 4$
b0 ($
b0 *$
b0 )$
b101 6$
b1 5$
0/$
01$
00$
1+
1q#
0N%
1%
#104
0%
#105
bx 4$
bx ($
bx *$
bx )$
bx 6$
bx 5$
x/$
x1$
x0$
1p#
0+
0O%
1%
#106
0%
#107
1%
#108
0%
#109
1%
#110
0%
1(
#111
1P%
1%
#112
0%
#113
b101 4%
1$"
b10 G$
b10000 1%
b101 2$
b10000 7$
b101 3$
1Q
1?
b10 :$
0q#
1N%
1%
#114
0%
#115
bx 1%
0Q
0?
b11 A$
b0z001 '$
bx 7$
b0z0110 %$
b0 :$
b100 &$
b11 m$
0p#
1O%
b10000 D%
b101 =%
1%
#116
0%
#117
1%
#118
0%
#119
1%
#120
0%
0(
#121
0P%
1%
#122
0%
#123
b110 4$
b0 ($
b0 *$
b0 )$
b110 6$
b1 5$
0/$
01$
00$
1+
1q#
0N%
1%
#124
0%
#125
bx 4$
bx ($
bx *$
bx )$
bx 6$
bx 5$
x/$
x1$
x0$
1p#
0+
0O%
1%
#126
0%
#127
1%
#128
0%
#129
1%
#130
0%
1(
#131
1P%
1%
#132
0%
#133
b110 4%
0$"
1%"
b0 G$
b10 F$
b100000 1%
b110 2$
b100000 7$
b110 3$
1Q
1?
b10 :$
0q#
1N%
1%
#134
0%
#135
bx 1%
b0z0111 %$
0Q
0?
b0z000 '$
bx 7$
b0 :$
b111 &$
0p#
1O%
b100000 D%
b110 =%
1%
#136
0%
#137
1%
#138
0%
#139
1%
#140
0%
0(
#141
0P%
1%
#142
0%
#143
b111 4$
b0 ($
b0 *$
b0 )$
b111 6$
b1 5$
0/$
01$
00$
1+
1q#
0N%
1%
#144
0%
#145
bx 4$
bx ($
bx *$
bx )$
bx 6$
bx 5$
x/$
x1$
x0$
1p#
0+
0O%
1%
#146
0%
#147
1%
#148
0%
#149
1%
#150
0%
1(
#151
1P%
1%
#152
0%
#153
b111 4%
1$"
b10 G$
b1000000 1%
b111 2$
b1000000 7$
b111 3$
1Q
1?
b10 :$
0q#
1N%
1%
#154
0%
#155
bx 1%
0Q
0?
bx 7$
b0z1000 %$
b0z111 '$
b0 :$
b110 &$
0p#
1O%
b1000000 D%
b111 =%
1%
#156
0%
#157
1%
#158
0%
#159
1%
#160
0%
0(
#161
0P%
1%
#162
0%
#163
b1000 4$
b0 ($
b0 *$
b0 )$
b1000 6$
b1 5$
0/$
01$
00$
1+
1q#
0N%
1%
#164
0%
#165
bx 4$
bx ($
bx *$
bx )$
bx 6$
bx 5$
x/$
x1$
x0$
1p#
0+
0O%
1%
#166
0%
#167
1%
#168
0%
#169
1%
#170
0%
1&
1(
#171
1P%
1C%
1%
#172
0%
#173
b1000 4%
0$"
0%"
0&"
1'"
b0 G$
b0 F$
b0 E$
b10 D$
b10000001 1%
b1000 2$
b10000001 7$
b1000 3$
1Q
1?
b10 :$
0q#
1B%
1N%
1%
#174
0%
#175
b11 0%
1R
1u
b0 4%
1d
0w
1v
b1 \$
0'"
b11 u$
b0 Z$
b1 [$
1n"
b0 D$
1A
1<
0s"
1r"
bx 1%
b10000001 8$
b11 ;$
b100 -$
b0 2$
0Q
0?
0;"
b10 A$
bx 7$
b0z000 '$
b0z1001 %$
b0 :$
b0 m$
b1001 &$
0Z
0p#
1O%
b10000001 D%
b1000 =%
1%
#176
0%
#177
b1011 +$
1y
b10 V$
b1000 W$
0R
0d
1{"
1%#
15#
0&#
06#
1x#
bx 4%
b10 u$
0y#
0:"
xw
xo"
1("
x$"
x%"
x&"
x'"
0>
1H
bx 0%
bx 8$
b0 v$
bx0 Z$
bx 2%
1g
xu
xv
0F
bx -$
b1 C$
b0x G$
b0x F$
b0x E$
b0x D$
b0 ;$
b10 ]$
1t
0f
b0 o$
0i
xt"
0P
0^
bx0 \$
bx0 [$
bz01000 .%
1*"
1?
b1 :$
1;"
b10 }$
0I
xW#
xY#
x[#
x]#
1,
b0 t$
b0 p$
19
1)"
b1 B$
b10 s$
1_
0+"
b11 {$
08
17
b11 r$
b0 q$
b10 n$
0n"
0r"
0A
0-
b10 m$
b0z0001 %$
0W
02
05
b0 A$
b0 3$
b1 &$
0c
10
1Z
b1 5%
0T
1b
0S
b0 =%
1M%
16%
b11 Q%
1%
#178
0%
#179
b1011 "
b1011 $$
1Y%
b1011 A%
1%
#180
0%
0(
#181
0P%
1%
#182
0%
#183
b1 4%
1$"
0%"
0&"
0'"
b1 G$
b0 F$
b0 E$
b0 D$
1W#
0Y#
0[#
0]#
b10110 ($
b1 4$
b0 *$
b10110 )$
b1 6$
b1 5$
0/$
1I
01$
00$
1@
18
1+
1q#
0N%
1%
#184
0%
#185
bx 4%
x$"
x%"
x&"
x'"
b0x G$
b0x F$
b0x E$
b0x D$
xW#
xY#
x[#
x]#
b1 2$
bx ($
bx 4$
1+"
b1 A$
b0z001 '$
b0z0010 %$
bx *$
bx )$
b0 &$
b11 m$
b1 3$
bx 6$
bx 5$
x/$
0I
x1$
x0$
0@
08
1p#
0+
b10110 ?%
b1 =%
0O%
1%
#186
0%
#187
1%
#188
0%
#189
1%
#190
0%
1(
#191
1P%
1%
#192
0%
#193
b10 2$
b11 7$
b10 3$
b11 :$
0q#
1N%
1%
#194
0%
#195
b1 2$
bx 7$
b1 3$
b1 :$
0p#
1O%
1%
#196
0%
#197
1%
#198
0%
#199
1%
#200
0%
0(
#201
0P%
1%
#202
0%
