tb_spi_slave_synth.vcd
$date
	Sun Jun  7 14:23:05 2026
$end
$version
	Icarus Verilog
$end
$timescale
	1ns
$end
$scope module tb_spi_slave_compare $end
$var wire 1 ! miso $end
$var wire 8 " debug [7:0] $end
$var wire 8 # data [7:0] $end
$var reg 8 $ addr [7:0] $end
$var reg 1 % clk $end
$var reg 8 & miso_rx1 [7:0] $end
$var reg 8 ' miso_rx3 [7:0] $end
$var reg 1 ( mosi $end
$var reg 1 ) rst_n $end
$var reg 1 * sck $end
$var reg 1 + ssel $end
$scope module spi_slave1 $end
$var wire 8 , Add2_in [7:0] $end
$var wire 1 % Clk $end
$var wire 1 ( MOSI $end
$var wire 1 * SCK $end
$var wire 1 + SSEL $end
$var wire 1 - _0007_ $end
$var wire 1 . _0008_ $end
$var wire 1 / _0009_ $end
$var wire 1 0 _0010_ $end
$var wire 1 1 _0011_ $end
$var wire 1 2 _0012_ $end
$var wire 1 3 _0013_ $end
$var wire 1 4 _0014_ $end
$var wire 1 5 _0015_ $end
$var wire 1 6 _0016_ $end
$var wire 1 7 _0017_ $end
$var wire 1 8 _0018_ $end
$var wire 1 9 _0019_ $end
$var wire 1 : _0020_ $end
$var wire 1 ; _0021_ $end
$var wire 1 < _0022_ $end
$var wire 1 = _0023_ $end
$var wire 1 > _0024_ $end
$var wire 1 ? _0025_ $end
$var wire 1 @ _0026_ $end
$var wire 1 A _0027_ $end
$var wire 1 B _0028_ $end
$var wire 1 C _0029_ $end
$var wire 1 D _0030_ $end
$var wire 1 E _0031_ $end
$var wire 1 F _0032_ $end
$var wire 1 G _0033_ $end
$var wire 1 H _0034_ $end
$var wire 1 I _0035_ $end
$var wire 1 J _0036_ $end
$var wire 1 K _0037_ $end
$var wire 1 L _0038_ $end
$var wire 1 M _0039_ $end
$var wire 1 N _0040_ $end
$var wire 1 O _0041_ $end
$var wire 1 P _0042_ $end
$var wire 1 Q _0043_ $end
$var wire 1 R _0044_ $end
$var wire 1 S _0045_ $end
$var wire 1 T _0046_ $end
$var wire 1 U _0047_ $end
$var wire 1 V _0048_ $end
$var wire 1 W _0049_ $end
$var wire 1 X _0050_ $end
$var wire 1 Y _0051_ $end
$var wire 1 Z _0052_ $end
$var wire 1 [ _0053_ $end
$var wire 1 \ _0054_ $end
$var wire 1 ] _0055_ $end
$var wire 1 ^ _0056_ $end
$var wire 1 _ _0057_ $end
$var wire 1 ` _0058_ $end
$var wire 1 a _0059_ $end
$var wire 1 b _0082_ $end
$var wire 1 c _0083_ $end
$var wire 1 d _0084_ $end
$var wire 1 e _0085_ $end
$var wire 1 f _0087_ $end
$var wire 1 g _0088_ $end
$var wire 1 h _0090_ $end
$var wire 1 i _0093_ $end
$var wire 1 j _0095_ $end
$var wire 1 k _0097_ $end
$var wire 1 l _0099_ $end
$var wire 1 m _0101_ $end
$var wire 1 n _0105_ $end
$var wire 1 o _0108_ $end
$var wire 1 p _0111_ $end
$var wire 1 q _0114_ $end
$var wire 1 r _0117_ $end
$var wire 1 s _0120_ $end
$var wire 1 t _0123_ $end
$var wire 1 u _0125_ $end
$var wire 1 v _0127_ $end
$var wire 1 w _0129_ $end
$var wire 1 x _0131_ $end
$var wire 1 y _0133_ $end
$var wire 1 z _0136_ $end
$var wire 1 { _0139_ $end
$var wire 1 | _0142_ $end
$var wire 1 } _0145_ $end
$var wire 1 ~ _0148_ $end
$var wire 1 !" _0151_ $end
$var wire 1 "" _0154_ $end
$var wire 1 #" _0157_ $end
$var wire 1 $" _0160_ $end
$var wire 1 %" _0161_ $end
$var wire 1 &" _0163_ $end
$var wire 1 '" _0165_ $end
$var wire 1 (" _0167_ $end
$var wire 1 )" _0169_ $end
$var wire 1 *" _0171_ $end
$var wire 1 +" _0173_ $end
$var wire 1 ," _0174_ $end
$var wire 1 -" _0176_ $end
$var wire 1 ." _0179_ $end
$var wire 1 /" _0182_ $end
$var wire 1 0" _0187_ $end
$var wire 1 1" _0188_ $end
$var wire 1 2" _0189_ $end
$var wire 1 3" _0190_ $end
$var wire 1 4" _0191_ $end
$var wire 1 5" _0192_ $end
$var wire 1 6" _0193_ $end
$var wire 1 7" _0194_ $end
$var wire 1 8" _0195_ $end
$var wire 1 9" _0196_ $end
$var wire 1 :" _0197_ $end
$var wire 1 ;" _0198_ $end
$var wire 1 <" _0199_ $end
$var wire 1 =" _0200_ $end
$var wire 1 >" _0201_ $end
$var wire 1 ?" _0202_ $end
$var wire 1 @" _0203_ $end
$var wire 1 A" _0204_ $end
$var wire 1 B" _0205_ $end
$var wire 1 C" _0206_ $end
$var wire 1 D" _0207_ $end
$var wire 1 E" _0208_ $end
$var wire 1 F" _0209_ $end
$var wire 1 G" _0210_ $end
$var wire 1 H" _0211_ $end
$var wire 1 I" _0212_ $end
$var wire 1 J" _0213_ $end
$var wire 1 K" _0214_ $end
$var wire 1 L" _0215_ $end
$var wire 1 M" _0216_ $end
$var wire 1 N" _0217_ $end
$var wire 1 O" _0218_ $end
$var wire 1 P" _0219_ $end
$var wire 1 Q" _0220_ $end
$var wire 1 R" _0221_ $end
$var wire 1 S" _0222_ $end
$var wire 1 T" _0223_ $end
$var wire 1 U" _0224_ $end
$var wire 1 V" _0225_ $end
$var wire 1 W" _0226_ $end
$var wire 1 X" _0227_ $end
$var wire 1 Y" _0228_ $end
$var wire 1 Z" _0229_ $end
$var wire 1 [" _0230_ $end
$var wire 1 \" _0231_ $end
$var wire 1 ]" _0232_ $end
$var wire 1 ^" _0233_ $end
$var wire 1 _" _0234_ $end
$var wire 1 `" _0235_ $end
$var wire 1 a" _0236_ $end
$var wire 1 b" _0237_ $end
$var wire 1 c" _0238_ $end
$var wire 1 d" _0239_ $end
$var wire 1 e" _0240_ $end
$var wire 1 f" _0241_ $end
$var wire 1 g" _0242_ $end
$var wire 1 h" _0243_ $end
$var wire 1 i" _0244_ $end
$var wire 1 j" _0245_ $end
$var wire 1 k" _0246_ $end
$var wire 1 l" _0247_ $end
$var wire 1 m" _0248_ $end
$var wire 1 n" _0249_ $end
$var wire 1 o" _0250_ $end
$var wire 1 p" _0251_ $end
$var wire 1 q" _0252_ $end
$var wire 1 r" _0253_ $end
$var wire 1 s" _0254_ $end
$var wire 1 t" _0255_ $end
$var wire 1 u" _0256_ $end
$var wire 1 v" _0257_ $end
$var wire 1 w" _0258_ $end
$var wire 1 x" _0259_ $end
$var wire 1 y" _0260_ $end
$var wire 1 z" _0261_ $end
$var wire 1 {" _0262_ $end
$var wire 1 |" _0263_ $end
$var wire 1 }" _0264_ $end
$var wire 1 ~" _0265_ $end
$var wire 1 !# _0266_ $end
$var wire 1 "# _0267_ $end
$var wire 1 ## _0268_ $end
$var wire 1 $# _0269_ $end
$var wire 1 %# _0270_ $end
$var wire 1 &# _0271_ $end
$var wire 1 '# _0272_ $end
$var wire 1 (# _0273_ $end
$var wire 1 )# _0274_ $end
$var wire 1 *# _0275_ $end
$var wire 1 +# _0276_ $end
$var wire 1 ,# _0277_ $end
$var wire 1 -# _0278_ $end
$var wire 1 .# _0279_ $end
$var wire 1 /# _0280_ $end
$var wire 1 0# _0281_ $end
$var wire 1 1# _0282_ $end
$var wire 1 2# _0283_ $end
$var wire 1 3# _0284_ $end
$var wire 1 4# _0285_ $end
$var wire 1 5# _0286_ $end
$var wire 1 6# _0287_ $end
$var wire 1 7# _0288_ $end
$var wire 1 8# _0289_ $end
$var wire 1 9# _0290_ $end
$var wire 1 :# _0291_ $end
$var wire 1 ;# _0292_ $end
$var wire 1 <# _0293_ $end
$var wire 1 =# _0294_ $end
$var wire 1 ># _0295_ $end
$var wire 1 ?# _0296_ $end
$var wire 1 @# _0297_ $end
$var wire 1 A# _0298_ $end
$var wire 1 B# _0299_ $end
$var wire 1 C# _0300_ $end
$var wire 1 D# _0301_ $end
$var wire 1 E# _0302_ $end
$var wire 1 F# _0303_ $end
$var wire 1 G# _0304_ $end
$var wire 1 H# _0305_ $end
$var wire 1 I# _0306_ $end
$var wire 1 J# _0307_ $end
$var wire 1 K# _0308_ $end
$var wire 1 L# _0309_ $end
$var wire 1 M# _0310_ $end
$var wire 1 N# _0311_ $end
$var wire 1 O# _0312_ $end
$var wire 1 P# _0313_ $end
$var wire 1 Q# _0314_ $end
$var wire 1 R# _0315_ $end
$var wire 1 S# _0316_ $end
$var wire 1 T# _0317_ $end
$var wire 1 U# _0318_ $end
$var wire 1 V# _0319_ $end
$var wire 1 W# _0320_ $end
$var wire 1 X# _0321_ $end
$var wire 1 Y# _0322_ $end
$var wire 1 Z# _0323_ $end
$var wire 1 [# _0324_ $end
$var wire 1 \# _0325_ $end
$var wire 1 ]# _0326_ $end
$var wire 1 ^# _0327_ $end
$var wire 1 _# _0328_ $end
$var wire 1 `# _0329_ $end
$var wire 1 a# _0330_ $end
$var wire 1 b# _0331_ $end
$var wire 1 c# _0332_ $end
$var wire 1 d# _0333_ $end
$var wire 1 e# _0334_ $end
$var wire 1 f# _0335_ $end
$var wire 1 g# _0336_ $end
$var wire 1 h# _0337_ $end
$var wire 1 i# _0338_ $end
$var wire 1 j# _0339_ $end
$var wire 1 k# _0340_ $end
$var wire 1 l# _0341_ $end
$var wire 1 m# _0342_ $end
$var wire 1 n# _0343_ $end
$var wire 1 o# _0344_ $end
$var wire 1 p# _0345_ $end
$var wire 1 q# _0346_ $end
$var wire 1 r# _0347_ $end
$var wire 1 s# _0348_ $end
$var wire 1 t# _0356_ $end
$var wire 1 u# _0357_ $end
$var wire 1 v# _0358_ $end
$var wire 1 w# _0359_ $end
$var wire 1 x# _0360_ $end
$var wire 1 y# _0361_ $end
$var wire 1 z# _0362_ $end
$var wire 1 {# _0363_ $end
$var wire 1 |# _0367_ $end
$var wire 1 }# _0368_ $end
$var wire 1 ~# _0369_ $end
$var wire 1 !$ _0370_ $end
$var wire 1 "$ _0371_ $end
$var wire 1 #$ _0372_ $end
$var wire 1 $$ _0373_ $end
$var wire 1 %$ _0374_ $end
$var wire 1 ) iRST_N $end
$var wire 8 &$ debug [7:0] $end
$var wire 32 '$ _0384_ [31:0] $end
$var wire 32 ($ _0383_ [31:0] $end
$var wire 32 )$ _0382_ [31:0] $end
$var wire 8 *$ _0381_ [7:0] $end
$var wire 8 +$ _0380_ [7:0] $end
$var wire 8 ,$ _0379_ [7:0] $end
$var wire 8 -$ _0378_ [7:0] $end
$var wire 3 .$ _0377_ [2:0] $end
$var wire 3 /$ _0376_ [2:0] $end
$var wire 3 0$ _0375_ [2:0] $end
$var wire 1 1$ _0366_ $end
$var wire 1 2$ _0365_ $end
$var wire 1 3$ _0364_ $end
$var wire 4 4$ _0355_ [3:0] $end
$var wire 4 5$ _0354_ [3:0] $end
$var wire 4 6$ _0353_ [3:0] $end
$var wire 4 7$ _0352_ [3:0] $end
$var wire 4 8$ _0351_ [3:0] $end
$var wire 8 9$ _0350_ [7:0] $end
$var wire 8 :$ _0349_ [7:0] $end
$var wire 2 ;$ _0186_ [1:0] $end
$var wire 2 <$ _0185_ [1:0] $end
$var wire 2 =$ _0184_ [1:0] $end
$var wire 4 >$ _0183_ [3:0] $end
$var wire 2 ?$ _0181_ [1:0] $end
$var wire 4 @$ _0180_ [3:0] $end
$var wire 2 A$ _0178_ [1:0] $end
$var wire 4 B$ _0177_ [3:0] $end
$var wire 2 C$ _0175_ [1:0] $end
$var wire 2 D$ _0172_ [1:0] $end
$var wire 2 E$ _0170_ [1:0] $end
$var wire 2 F$ _0168_ [1:0] $end
$var wire 2 G$ _0166_ [1:0] $end
$var wire 2 H$ _0164_ [1:0] $end
$var wire 2 I$ _0162_ [1:0] $end
$var wire 2 J$ _0159_ [1:0] $end
$var wire 4 K$ _0158_ [3:0] $end
$var wire 2 L$ _0156_ [1:0] $end
$var wire 4 M$ _0155_ [3:0] $end
$var wire 2 N$ _0153_ [1:0] $end
$var wire 4 O$ _0152_ [3:0] $end
$var wire 2 P$ _0150_ [1:0] $end
$var wire 4 Q$ _0149_ [3:0] $end
$var wire 2 R$ _0147_ [1:0] $end
$var wire 4 S$ _0146_ [3:0] $end
$var wire 2 T$ _0144_ [1:0] $end
$var wire 4 U$ _0143_ [3:0] $end
$var wire 2 V$ _0141_ [1:0] $end
$var wire 4 W$ _0140_ [3:0] $end
$var wire 2 X$ _0138_ [1:0] $end
$var wire 4 Y$ _0137_ [3:0] $end
$var wire 2 Z$ _0135_ [1:0] $end
$var wire 4 [$ _0134_ [3:0] $end
$var wire 2 \$ _0132_ [1:0] $end
$var wire 2 ]$ _0130_ [1:0] $end
$var wire 2 ^$ _0128_ [1:0] $end
$var wire 2 _$ _0126_ [1:0] $end
$var wire 2 `$ _0124_ [1:0] $end
$var wire 2 a$ _0122_ [1:0] $end
$var wire 4 b$ _0121_ [3:0] $end
$var wire 2 c$ _0119_ [1:0] $end
$var wire 4 d$ _0118_ [3:0] $end
$var wire 2 e$ _0116_ [1:0] $end
$var wire 4 f$ _0115_ [3:0] $end
$var wire 2 g$ _0113_ [1:0] $end
$var wire 4 h$ _0112_ [3:0] $end
$var wire 2 i$ _0110_ [1:0] $end
$var wire 4 j$ _0109_ [3:0] $end
$var wire 2 k$ _0107_ [1:0] $end
$var wire 4 l$ _0106_ [3:0] $end
$var wire 2 m$ _0104_ [1:0] $end
$var wire 2 n$ _0103_ [1:0] $end
$var wire 2 o$ _0102_ [1:0] $end
$var wire 2 p$ _0100_ [1:0] $end
$var wire 2 q$ _0098_ [1:0] $end
$var wire 2 r$ _0096_ [1:0] $end
$var wire 2 s$ _0094_ [1:0] $end
$var wire 2 t$ _0092_ [1:0] $end
$var wire 2 u$ _0091_ [1:0] $end
$var wire 2 v$ _0089_ [1:0] $end
$var wire 2 w$ _0086_ [1:0] $end
$var wire 2 x$ _0081_ [1:0] $end
$var wire 2 y$ _0080_ [1:0] $end
$var wire 2 z$ _0079_ [1:0] $end
$var wire 3 {$ _0078_ [2:0] $end
$var wire 2 |$ _0077_ [1:0] $end
$var wire 3 }$ _0076_ [2:0] $end
$var wire 2 ~$ _0075_ [1:0] $end
$var wire 3 !% _0074_ [2:0] $end
$var wire 2 "% _0073_ [1:0] $end
$var wire 3 #% _0072_ [2:0] $end
$var wire 2 $% _0071_ [1:0] $end
$var wire 3 %% _0070_ [2:0] $end
$var wire 2 &% _0069_ [1:0] $end
$var wire 2 '% _0068_ [1:0] $end
$var wire 2 (% _0067_ [1:0] $end
$var wire 4 )% _0066_ [3:0] $end
$var wire 2 *% _0065_ [1:0] $end
$var wire 4 +% _0064_ [3:0] $end
$var wire 2 ,% _0063_ [1:0] $end
$var wire 4 -% _0062_ [3:0] $end
$var wire 2 .% _0061_ [1:0] $end
$var wire 4 /% _0060_ [3:0] $end
$var wire 8 0% _0006_ [7:0] $end
$var wire 1 1% _0005_ $end
$var wire 3 2% _0004_ [2:0] $end
$var wire 8 3% _0003_ [7:0] $end
$var wire 8 4% _0002_ [7:0] $end
$var wire 8 5% _0001_ [7:0] $end
$var wire 4 6% _0000_ [3:0] $end
$var wire 8 7% Add_SPI [7:0] $end
$var reg 1 8% \Add_SPI_reg[0] $end
$var reg 1 9% \Add_SPI_reg[1] $end
$var reg 1 :% \Add_SPI_reg[2] $end
$var reg 1 ;% \Add_SPI_reg[3] $end
$var reg 1 <% \Add_SPI_reg[4] $end
$var reg 1 =% \Add_SPI_reg[5] $end
$var reg 1 >% \Add_SPI_reg[6] $end
$var reg 4 ?% BitCnt [3:0] $end
$var reg 8 @% Data2_out [7:0] $end
$var reg 8 A% DataToSend [7:0] $end
$var reg 8 B% Data_fromSPI [7:0] $end
$var reg 8 C% Data_toSPI [7:0] $end
$var reg 1 ! MISO $end
$var reg 1 D% MOSI_delay0 $end
$var reg 1 E% MOSI_metastable $end
$var reg 8 F% ReceivedByte [7:0] $end
$var reg 8 G% Register0 [7:0] $end
$var reg 8 H% Register1 [7:0] $end
$var reg 8 I% Register2 [7:0] $end
$var reg 8 J% Register3 [7:0] $end
$var reg 8 K% Register4 [7:0] $end
$var reg 8 L% Register5 [7:0] $end
$var reg 8 M% Register6 [7:0] $end
$var reg 8 N% Register7 [7:0] $end
$var reg 1 O% RnW $end
$var reg 1 P% SCK_delay0 $end
$var reg 1 Q% SCK_delay1 $end
$var reg 1 R% SCK_metastable $end
$var reg 3 S% SPI_State [2:0] $end
$var reg 1 T% SSEL_delay0 $end
$var reg 1 U% SSEL_delay1 $end
$var reg 1 V% SSEL_metastable $end
$var reg 1 W% WrEn $end
$var reg 1 X% \debug_reg[0] $end
$var reg 1 Y% \debug_reg[1] $end
$var reg 1 Z% \debug_reg[2] $end
$var reg 1 [% \debug_reg[3] $end
$var reg 1 \% \debug_reg[4] $end
$upscope $end
$scope task spi_read_data $end
$var reg 8 ]% rx [7:0] $end
$var integer 32 ^% i [31:0] $end
$upscope $end
$scope task spi_send_cmd $end
$var reg 8 _% cmd [7:0] $end
$var integer 32 `% i [31:0] $end
$upscope $end
$scope task spi_write_data $end
$var reg 8 a% tx [7:0] $end
$var integer 32 b% i [31:0] $end
$upscope $end
$upscope $end
$enddefinitions $end
$comment Show the parameter values. $end
$dumpall
$end
#0
$dumpvars
bx b%
bx a%
bx `%
bx _%
bx ^%
bx ]%
0\%
0[%
0Z%
0Y%
0X%
0W%
0V%
0U%
0T%
b0 S%
0R%
0Q%
0P%
0O%
b110000 N%
b100000 M%
b10000 L%
b1110 K%
b1101 J%
b1100 I%
b1011 H%
b1010 G%
b0 F%
0E%
0D%
b0 C%
b0 B%
b0 A%
b0 @%
b0 ?%
0>%
0=%
0<%
0;%
0:%
09%
08%
b0 7%
b0 6%
b1011 5%
bx 4%
bx 3%
bx 2%
01%
bz00001 0%
b11 /%
b1 .%
b10 -%
b1 ,%
b11 +%
b1 *%
b1 )%
b1 (%
b1 '%
b0 &%
b11 %%
b1 $%
b11 #%
b1 "%
b11 !%
b1 ~$
b10 }$
b1 |$
b1 {$
b1 z$
b1 y$
b1 x$
b1 w$
b10 v$
b10 u$
b0 t$
b11 s$
b0 r$
b0 q$
b10 p$
b10 o$
b1 n$
b10 m$
b0 l$
b0 k$
b1000 j$
b10 i$
b0 h$
b0 g$
b0 f$
b0 e$
b0 d$
b0 c$
b0 b$
b0 a$
b1 `$
b1 _$
b0x ^$
b0x ]$
b0x \$
b1000 [$
b10 Z$
b0 Y$
b0 X$
b1000 W$
b10 V$
b0 U$
b0 T$
b1000 S$
b10 R$
b0 Q$
b0 P$
b0 O$
b0 N$
b0 M$
b0 L$
b0 K$
b0 J$
b0 I$
b0 H$
b0 G$
b0 F$
b0 E$
b0 D$
b0 C$
b1000 B$
b10 A$
b1000 @$
b10 ?$
b1000 >$
b1 =$
b1 <$
b0 ;$
bx :$
bx 9$
bx 8$
bx 7$
bx 6$
b0 5$
b0 4$
x3$
x2$
x1$
bx 0$
bx /$
bx .$
b1010 -$
bx ,$
bx +$
bx *$
b0z000 )$
b1 ($
b0z0001 '$
b0 &$
0%$
1$$
0#$
0"$
0!$
0~#
0}#
0|#
1{#
0z#
0y#
0x#
0w#
0v#
0u#
0t#
1s#
1r#
1q#
0p#
1o#
0n#
0m#
0l#
0k#
0j#
0i#
0h#
1g#
0f#
0e#
0d#
0c#
0b#
0a#
0`#
0_#
0^#
0]#
0\#
0[#
0Z#
0Y#
0X#
0W#
0V#
0U#
0T#
0S#
0R#
0Q#
0P#
0O#
0N#
0M#
0L#
0K#
0J#
0I#
0H#
0G#
0F#
0E#
0D#
0C#
0B#
0A#
0@#
0?#
0>#
0=#
0<#
0;#
0:#
09#
18#
07#
06#
05#
04#
03#
02#
01#
00#
0/#
0.#
0-#
0,#
0+#
0*#
0)#
1(#
0'#
0&#
0%#
0$#
0##
0"#
0!#
0~"
0}"
0|"
0{"
0z"
0y"
0x"
0w"
0v"
0u"
0t"
xs"
0r"
0q"
0p"
xo"
0n"
0m"
0l"
0k"
0j"
0i"
0h"
0g"
0f"
0e"
0d"
0c"
0b"
0a"
0`"
0_"
0^"
0]"
0\"
0["
0Z"
0Y"
0X"
0W"
0V"
0U"
0T"
0S"
0R"
0Q"
0P"
0O"
0N"
1M"
0L"
0K"
0J"
0I"
0H"
0G"
0F"
0E"
0D"
0C"
0B"
0A"
0@"
0?"
1>"
1="
1<"
1;"
1:"
19"
18"
17"
16"
05"
14"
13"
12"
11"
10"
1/"
1."
0-"
1,"
0+"
0*"
0)"
0("
0'"
0&"
1%"
0$"
0#"
0""
0!"
1~
0}
1|
0{
1z
xy
xx
xw
1v
1u
0t
0s
0r
0q
1p
0o
1n
0m
0l
0k
1j
0i
1h
0g
0f
1e
1d
1c
0b
1a
1`
1_
1^
0]
1\
1[
1Z
1Y
1X
1W
1V
1U
0T
0S
0R
0Q
0P
0O
0N
0M
0L
1K
0J
1I
0H
0G
0F
0E
0D
0C
0B
1A
1@
1?
1>
0=
1<
1;
1:
09
18
07
06
15
14
03
12
11
00
0/
0.
0-
b1 ,
1+
0*
0)
0(
bx '
bx &
0%
b1 $
b0 #
b0 "
0!
$end
#1
1%
#2
0%
#3
1%
#4
0%
#5
1%
#6
0%
#7
1%
#8
0%
#9
1%
#10
0%
1)
#11
b1 "
b1 &$
b1011 #
b1011 @%
1V%
1X%
1%
#12
0%
#13
b0 0$
0q#
1T%
1%
#14
0%
#15
1U%
1%
#16
0%
#17
1%
#18
0%
#19
1%
#20
0%
1(
b111 `%
b10000001 _%
0+
#21
0V%
1E%
1%
#22
0%
#23
b1 2%
0y
0x
1w
b0 \$
b0 ]$
b1 ^$
1T
1f
0s"
1o"
b11 w$
b1 .$
1=
b1 ;$
bx 0$
1q#
1D%
0T%
1%
#24
0%
#25
0T
xx
xy
1H
b0 6%
bx 2%
0f
1k
xw
1?
0I
b0x ]$
b0x \$
0A
b0 <$
1%"
b1 _$
1v
1h
0j
b1 w$
1+"
b10 D$
0S
0a
b0x ^$
bz00010 0%
0m
b10 q$
b1 p$
xp"
xt"
xu"
1/
b10 v$
b0 s$
b1 u$
0>
17
0o"
1,"
b11 r$
b0 t$
bx .$
02
08
0d
13
0W
1b
b10 ;$
b1 S%
0U%
1%
#26
0%
#27
b11 "
b11 &$
1Y%
1%
#28
0%
#29
1%
#30
0%
1*
#31
1R%
1%
#32
0%
#33
b1 6%
1&"
b10 I$
b1 3%
b1 4$
b1 9$
b1 5$
1S
1A
b10 <$
0s#
1P%
1%
#34
0%
#35
bx 3%
0S
0A
1-"
b1 C$
b0z001 )$
bx 9$
b0z0010 '$
b0 <$
b0 ($
b11 o$
0r#
1Q%
b1 F%
b1 ?%
1%
#36
0%
#37
1%
#38
0%
#39
1%
#40
0%
0(
b110 `%
0*
#41
0E%
0R%
1%
#42
0%
#43
b10 6$
b0 *$
b0 ,$
b0 +$
b10 8$
b1 7$
01$
03$
02$
1-
1s#
0P%
0D%
1%
#44
0%
#45
bx 6$
bx *$
bx ,$
bx +$
bx 8$
bx 7$
x1$
x3$
x2$
1r#
0-
0Q%
1%
#46
0%
#47
1%
#48
0%
#49
1%
#50
0%
1*
#51
1R%
1%
#52
0%
#53
b10 6%
0&"
1'"
b0 I$
b10 H$
b10 3%
b10 4$
b10 9$
b10 5$
1S
1A
b10 <$
0s#
1P%
1%
#54
0%
#55
bx 3%
b0z0011 '$
0S
0A
b0z000 )$
bx 9$
b0 <$
b11 ($
0r#
1Q%
b10 F%
b10 ?%
1%
#56
0%
#57
1%
#58
0%
#59
1%
#60
0%
b101 `%
0*
#61
0R%
1%
#62
0%
#63
b11 6$
b0 *$
b0 ,$
b0 +$
b11 8$
b1 7$
01$
03$
02$
1-
1s#
0P%
1%
#64
0%
#65
bx 6$
bx *$
bx ,$
bx +$
bx 8$
bx 7$
x1$
x3$
x2$
1r#
0-
0Q%
1%
#66
0%
#67
1%
#68
0%
#69
1%
#70
0%
1*
#71
1R%
1%
#72
0%
#73
b11 6%
1&"
b10 I$
b100 3%
b11 4$
b100 9$
b11 5$
1S
1A
b10 <$
0s#
1P%
1%
#74
0%
#75
bx 3%
0S
0A
bx 9$
b0z0100 '$
b0z011 )$
b0 <$
b10 ($
0r#
1Q%
b100 F%
b11 ?%
1%
#76
0%
#77
1%
#78
0%
#79
1%
#80
0%
b100 `%
0*
#81
0R%
1%
#82
0%
#83
b100 6$
b0 *$
b0 ,$
b0 +$
b100 8$
b1 7$
01$
03$
02$
1-
1s#
0P%
1%
#84
0%
#85
bx 6$
bx *$
bx ,$
bx +$
bx 8$
bx 7$
x1$
x3$
x2$
1r#
0-
0Q%
1%
#86
0%
#87
1%
#88
0%
#89
1%
#90
0%
1*
#91
1R%
1%
#92
0%
#93
b100 6%
0&"
0'"
1("
b0 I$
b0 H$
b10 G$
b1000 3%
b100 4$
b1000 9$
b100 5$
1S
1A
b10 <$
0s#
1P%
1%
#94
0%
#95
bx 3%
0S
0A
bx 9$
b0z0101 '$
b0z000 )$
b0 <$
b10 o$
b10 C$
b101 ($
0r#
1Q%
b1000 F%
b100 ?%
1%
#96
0%
#97
1%
#98
0%
#99
1%
#100
0%
b11 `%
0*
#101
0R%
1%
#102
0%
#103
b101 6$
b0 *$
b0 ,$
b0 +$
b101 8$
b1 7$
01$
03$
02$
1-
1s#
0P%
1%
#104
0%
#105
bx 6$
bx *$
bx ,$
bx +$
bx 8$
bx 7$
x1$
x3$
x2$
1r#
0-
0Q%
1%
#106
0%
#107
1%
#108
0%
#109
1%
#110
0%
1*
#111
1R%
1%
#112
0%
#113
b101 6%
1&"
b10 I$
b10000 3%
b101 4$
b10000 9$
b101 5$
1S
1A
b10 <$
0s#
1P%
1%
#114
0%
#115
bx 3%
0S
0A
b11 C$
b0z001 )$
bx 9$
b0z0110 '$
b0 <$
b100 ($
b11 o$
0r#
1Q%
b10000 F%
b101 ?%
1%
#116
0%
#117
1%
#118
0%
#119
1%
#120
0%
b10 `%
0*
#121
0R%
1%
#122
0%
#123
b110 6$
b0 *$
b0 ,$
b0 +$
b110 8$
b1 7$
01$
03$
02$
1-
1s#
0P%
1%
#124
0%
#125
bx 6$
bx *$
bx ,$
bx +$
bx 8$
bx 7$
x1$
x3$
x2$
1r#
0-
0Q%
1%
#126
0%
#127
1%
#128
0%
#129
1%
#130
0%
1*
#131
1R%
1%
#132
0%
#133
b110 6%
0&"
1'"
b0 I$
b10 H$
b100000 3%
b110 4$
b100000 9$
b110 5$
1S
1A
b10 <$
0s#
1P%
1%
#134
0%
#135
bx 3%
b0z0111 '$
0S
0A
b0z000 )$
bx 9$
b0 <$
b111 ($
0r#
1Q%
b100000 F%
b110 ?%
1%
#136
0%
#137
1%
#138
0%
#139
1%
#140
0%
b1 `%
0*
#141
0R%
1%
#142
0%
#143
b111 6$
b0 *$
b0 ,$
b0 +$
b111 8$
b1 7$
01$
03$
02$
1-
1s#
0P%
1%
#144
0%
#145
bx 6$
bx *$
bx ,$
bx +$
bx 8$
bx 7$
x1$
x3$
x2$
1r#
0-
0Q%
1%
#146
0%
#147
1%
#148
0%
#149
1%
#150
0%
1*
#151
1R%
1%
#152
0%
#153
b111 6%
1&"
b10 I$
b1000000 3%
b111 4$
b1000000 9$
b111 5$
1S
1A
b10 <$
0s#
1P%
1%
#154
0%
#155
bx 3%
0S
0A
bx 9$
b0z1000 '$
b0z111 )$
b0 <$
b110 ($
0r#
1Q%
b1000000 F%
b111 ?%
1%
#156
0%
#157
1%
#158
0%
#159
1%
#160
0%
1(
b0 `%
0*
#161
1E%
0R%
1%
#162
0%
#163
b1000 6$
b0 *$
b0 ,$
b0 +$
b1000 8$
b1 7$
01$
03$
02$
1-
1s#
0P%
1D%
1%
#164
0%
#165
bx 6$
bx *$
bx ,$
bx +$
bx 8$
bx 7$
x1$
x3$
x2$
1r#
0-
0Q%
1%
#166
0%
#167
1%
#168
0%
#169
1%
#170
0%
1*
#171
1R%
1%
#172
0%
#173
b1000 6%
0&"
0'"
0("
1)"
b0 I$
b0 H$
b0 G$
b10 F$
b10000001 3%
b1000 4$
b10000001 9$
b1000 5$
1S
1A
b10 <$
0s#
1P%
1%
#174
0%
#175
b11 2%
1T
1w
b0 6%
1f
0y
1x
b1 ^$
0)"
b11 w$
b0 \$
b1 ]$
1p"
b0 F$
1C
1>
0u"
1t"
bx 3%
b10000001 :$
b11 =$
b100 /$
b0 4$
0S
0A
0="
b10 C$
bx 9$
b0z000 )$
b0z1001 '$
b0 <$
b0 o$
b1001 ($
0\
0r#
1Q%
b10000001 F%
b1000 ?%
1%
#176
0%
#177
b1011 -$
1{
b10 X$
b1000 Y$
0T
0f
1}"
1'#
17#
0(#
08#
1z#
bx 6%
b10 w$
0{#
0<"
xy
xq"
1*"
x&"
x'"
x("
x)"
0@
1J
bx 2%
bx :$
b0 x$
bx0 \$
bx 4%
1i
xw
xx
0H
bx /$
b1 E$
b0x I$
b0x H$
b0x G$
b0x F$
b0 =$
b10 _$
1v
0h
b0 q$
0k
xv"
0R
0`
bx0 ^$
bx0 ]$
bz01000 0%
1,"
1A
b1 <$
1="
b10 !%
0K
xY#
x[#
x]#
x_#
1.
b0 v$
b0 r$
1;
1+"
b1 D$
b10 u$
1a
0-"
b11 }$
0:
19
b11 t$
b0 s$
b10 p$
0p"
0t"
0C
0/
b10 o$
b0z0001 '$
0Y
04
07
b0 C$
b0 5$
b1 ($
0e
12
1\
b1 7%
0V
1d
0U
b0 ?%
1O%
18%
b11 S%
1%
#178
0%
#179
b1011 "
b1011 &$
1[%
b1011 C%
1%
#180
0%
b111 ^%
b11111111111111111111111111111111 `%
0*
#181
0R%
1%
#182
0%
#183
b1 6%
1&"
0'"
0("
0)"
b1 I$
b0 H$
b0 G$
b0 F$
1Y#
0[#
0]#
0_#
b10110 *$
b1 6$
b0 ,$
b10110 +$
b1 8$
b1 7$
01$
1K
03$
02$
1B
1:
1-
1s#
0P%
1%
#184
0%
